<?xml version="1.0" encoding="utf-8"?>
<!-- Generator: Adobe Illustrator 22.1.0, SVG Export Plug-In . SVG Version: 6.00 Build 0)  -->
<svg version="1.1" id="Layer_1" xmlns="http://www.w3.org/2000/svg" xmlns:xlink="http://www.w3.org/1999/xlink" x="0px" y="0px"
	 viewBox="0 0 799.1 375.2" style="enable-background:new 0 0 799.1 375.2;" xml:space="preserve">
<style type="text/css">
	.st0{fill:#E82C2E;}
	.st1{fill:#8E1906;}
</style>
<g>
	<path d="M340.9,190.5l16.9,61.1c0,0-6.4,1.5-17.8,1.5c-11.2,0-16.1-1.5-16.1-1.5L311.2,202h-6.4l-10.7,49.6c0,0-4.9,1.5-15.9,1.5
		c-10,0-15.3-1.5-15.3-1.5l10.5-49.6h-5.6l-33.9,49.6c0,0-6.6,1.5-17.4,1.5c-11.3,0-17.4-1.5-17.4-1.5l43.1-62.8l-15-52.8
		c4.3-0.8,10.4-1.3,16.9-1.3c6.1,0,10.7,0.5,14.8,1.3l13.1,45.2h5.8l9.5-45c0,0,5.9-1.5,16.1-1.5s15.3,1.5,15.3,1.5l-9.7,45h5.8
		l32.1-45.2c4.6-0.8,9.7-1.3,16.1-1.3c6.6,0,11.5,0.5,15.9,1.3L340.9,190.5z"/>
	<path d="M365.9,251.6l24.5-115.4c0,0,6.6-1.5,15.8-1.5c9.4,0,15.4,1.5,15.6,1.5l-7.7,36.7c-4.6,21.7-13.2,45.4-13.8,47l1.3,0.2
		c3.4-7.7,12.5-25.3,21.2-39.3l27.6-44.5c0,0,6.4-1.5,18.2-1.5c12,0,17.9,1.5,17.9,1.5l-24.5,115.4c0,0-6.7,1.5-15.8,1.5
		c-10,0-15.4-1.5-15.4-1.5l7.9-37c4.4-21,12.5-43.6,13.8-46.7h-1.3c-0.2,0.3-10.2,22-21,39l-27.1,44.7c-0.2,0-6.6,1.5-18.9,1.5
		C370.8,253.1,365.9,251.6,365.9,251.6z"/>
	<path d="M566.4,192.3c9.2,4.4,14.1,14.3,11.3,27.8c-4.9,23.3-21.4,33-46,33H481l25.1-118.3h50.1c23.2,0,33.7,12.3,29.1,33.5
		C582.9,180,576,187.5,566.4,192.3z M536.4,204.3h-13.8l-5.9,27h14c8.7,0,14.1-3.9,16.3-13.5C549,207.9,544.9,204.3,536.4,204.3z
		 M546.1,156.5h-13.3l-5.4,25.6h13.3c7.2,0,12.2-4.8,13.8-12.8C556.2,160.7,553.3,156.5,546.1,156.5z"/>
	<path d="M685.4,145.8c-1,4.9-2.6,9.4-4.3,12.2h-44.5l-5.1,24H668c0.2,3,0.2,6.1-0.8,11.2c-1.1,5.3-2.5,8.5-4.1,11.5h-36.3
		l-5.3,25.3h46.2c0.3,2.8,0.2,7.1-0.8,11.5c-1.1,4.4-2.5,8.5-4.3,11.7h-77.4l25.1-118.3h75.8C686.4,137.2,686.4,141.3,685.4,145.8z"
		/>
	<path d="M678.2,251.6l24.5-115.4c0,0,6.6-1.5,15.8-1.5c9.4,0,15.4,1.5,15.6,1.5l-7.7,36.7c-4.6,21.7-13.2,45.4-13.8,47l1.3,0.2
		c3.4-7.7,12.5-25.3,21.2-39.3l27.6-44.5c0,0,6.4-1.5,18.2-1.5c12,0,17.9,1.5,17.9,1.5l-24.5,115.4c0,0-6.7,1.5-15.8,1.5
		c-10,0-15.4-1.5-15.4-1.5l7.9-37c4.4-21,12.5-43.6,13.8-46.7h-1.3c-0.2,0.3-10.2,22-21,39l-27.1,44.7c-0.2,0-6.6,1.5-18.9,1.5
		C683.1,253.1,678.2,251.6,678.2,251.6z M723.2,112.6c2.8-7.2,9.4-13.8,15.8-16.9c0,0,6.6,6.7,19.4,6.7c12.7,0,22-6.7,22-6.7
		c5.1,3.1,8.7,9.9,8.7,16.9c0,0-13.3,13.2-35.8,13.2C731,125.7,723.2,112.6,723.2,112.6z"/>
</g>
<g>
	<path d="M230.3,368.7c-1.9,0.5-6.5,1.1-12.3,1.1c-5.5,0-9.3-0.6-10.8-1.1l-1.4-16.4h-28.7l-8.6,16.4c-2,0.5-6.8,1.1-12,1.1
		c-5,0-9.2-0.6-10.8-1.1l45.6-87.2c2.4-0.5,8.3-1.1,15.5-1.1c7.5,0,12.9,0.6,15,1.1L230.3,368.7z M185.5,336.1h18.9l-1.6-16.8
		c-0.6-8.2-0.2-16,0.2-19.6h-0.9c-0.6,4.1-4,12.2-7.9,19.7L185.5,336.1z"/>
	<path d="M295,323.7l16.8,45.1c0,0-6.1,1.1-13.9,1.1c-8.3,0-11.3-1.1-11.3-1.1L274,331.9h-5l-7.8,36.9c0,0-4.1,1.1-12,1.1
		c-7.6,0-11.5-1.1-11.5-1.1l18.5-87.2c0,0,4.6-1.1,12.2-1.1c7.3,0,11.4,1.1,11.4,1.1l-7.1,33.4h4l25-33.4c3.2-0.6,7.1-1.1,12.5-1.1
		c5.7,0,9.1,0.5,12.4,1.1L295,323.7z"/>
	<path d="M397.4,290.1c-1.2,5.6-3.4,9.8-3.4,9.8h-21.2l-14.5,68.8c0,0-5.2,1.1-12,1.1c-7.4,0-11.5-1.1-11.5-1.1l14.5-68.8h-21.6
		c0,0-0.5-3.8,0.7-9.6c1.2-6,3.4-9.9,3.4-9.9h66.4C398.2,280.4,398.5,284.4,397.4,290.1z"/>
	<path d="M389.5,368.7l18.5-87.2c0,0,5-1.1,11.9-1.1c7.1,0,11.7,1.1,11.8,1.1l-5.8,27.7c-3.5,16.4-9.9,34.3-10.4,35.5l1,0.1
		c2.6-5.8,9.4-19.1,16-29.7l20.9-33.7c0,0,4.8-1.1,13.8-1.1c9.1,0,13.5,1.1,13.5,1.1l-18.5,87.2c0,0-5.1,1.1-11.9,1.1
		c-7.6,0-11.7-1.1-11.7-1.1l6-27.9c3.4-15.9,9.4-32.9,10.4-35.3h-1c-0.1,0.2-7.7,16.6-15.9,29.4l-20.5,33.8c-0.1,0-5,1.1-14.3,1.1
		C393.2,369.9,389.5,368.7,389.5,368.7z"/>
	<path d="M540.9,323.9c7,3.4,10.7,10.8,8.6,21c-3.7,17.6-16.1,25-34.8,25h-38.4l19-89.4h37.9c17.5,0,25.5,9.3,22,25.3
		C553.4,314.6,548.2,320.3,540.9,323.9z M518.2,333h-10.4l-4.5,20.4h10.6c6.6,0,10.7-3,12.3-10.2C527.8,335.7,524.7,333,518.2,333z
		 M525.5,296.8h-10.1l-4.1,19.4h10.1c5.5,0,9.2-3.6,10.4-9.7C533.2,300.1,531,296.8,525.5,296.8z"/>
	<path d="M644.4,281.6l-18.5,87.2c0,0-5,1.1-11.9,1.1c-7.6,0-11.7-1.1-11.7-1.1l7.5-35.4h-23.3l-7.5,35.4c0,0-5.3,1.1-12,1.1
		c-7.4,0-11.5-1.1-11.5-1.1l18.5-87.2c0,0,5-1.1,11.9-1.1c7,0,11.7,1.1,11.7,1.1l-7.1,33.2h23.4l7.1-33.2c0,0,5.1-1.1,12-1.1
		S644.4,281.6,644.4,281.6z"/>
	<path d="M647,322.7c7-32,23.6-43.8,47.6-43.8c24,0,36.3,16.4,29.3,48.8c-6.8,32.4-23.5,43.8-47.4,43.8
		C652.2,371.5,640.1,355.1,647,322.7z M699.4,325.1c5.1-23.2,1.2-28.4-7.9-28.4c-8.8,0-14.9,5.2-20,28.4
		c-4.8,23.1-0.9,28.3,7.9,28.3C688.4,353.5,694.5,348.2,699.4,325.1z"/>
</g>
<g>
	<ellipse transform="matrix(0.9239 -0.3827 0.3827 0.9239 -0.7523 68.5737)" class="st0" cx="172" cy="36.2" rx="36.2" ry="36.2"/>
	<g>
		<path class="st0" d="M276.3,50.7c-19.1,2.4-37.3,16.7-76.5,30.1c-10.4,3.6-26.4,6.5-35.2,6.2c-22.9-0.9-35.7-4.1-51.1-9.6
			C77.5,64.6,55.7,46,28.6,44.4c-20.2-1.2-25.1,23.2,4,29.9c0,0,69.3,13.2,56.8,85.5C78.1,224.7,3.7,342.5,3.7,342.5
			s-6.7,11.2-2.2,17.8c5.2,7.7,16.5,10.6,22.5,5c13.7-12.5,70.3-111.9,87-140.2C104.1,250,81.8,348.8,79.6,359
			c-1.7,8.1,5.3,15.6,12.6,16.2c8,0.6,16.9-3.8,18.6-11.7c10.3-46.2,43.6-149.8,64-190.7c33.4-67.2,63.8-76.7,94.7-86.8
			C300.9,75.6,292.7,48.6,276.3,50.7z"/>
		<path class="st1" d="M277,50.7c-19.1,2.4-37.3,16.7-76.5,30.1c-10.4,3.6-18.8,4.6-28.1,5.9c-2.4,0.3-6.5,0.7-11.5,0.2l-49.6,138.3
			L93,302.9c-6.2,27-11.7,51.3-12.7,56c-1.7,8.1,5.3,15.6,12.6,16.2c8,0.6,16.9-3.8,18.6-11.7c10.3-46.2,43.6-149.8,64-190.7
			c33.5-67.2,63.8-76.7,94.7-86.8C301.6,75.6,293.4,48.6,277,50.7z"/>
	</g>
	<path class="st1" d="M189.5,4.3l-24,67.4c2.2,0.4,4.5,0.7,6.9,0.7c20,0,36.2-16.2,36.2-36.2C208.6,22.4,200.9,10.4,189.5,4.3z"/>
</g>
<g>
	<path class="st0" d="M728.4,369.7l4.4-21.3c0,0,4.1-1,11.7-1c7.3,0,11,1,11,1l-4.4,21.3c0,0-4.4,1-11.7,1
		C732.1,370.7,728.4,369.7,728.4,369.7z M735.8,342.1l10.2-60.7c0,0,4.5-1,12.5-1c7.8,0,12.2,1,12.2,1l-15.5,60.7
		c0,0-3.6,1.1-9.8,1.1C739.2,343.2,735.8,342.1,735.8,342.1z"/>
</g>
<g>
	<path class="st0" d="M417.6,13.9l-13,61.3c0,0-3.5,0.8-8.4,0.8c-5.3,0-8.2-0.8-8.2-0.8l5.2-24.9h-16.4l-5.2,24.9
		c0,0-3.8,0.8-8.5,0.8c-5.2,0-8.1-0.8-8.1-0.8l13-61.3c0,0,3.5-0.8,8.4-0.8c4.9,0,8.2,0.8,8.2,0.8l-5,23.3H396l5-23.3
		c0,0,3.6-0.8,8.5-0.8C414.3,13.2,417.6,13.9,417.6,13.9z"/>
	<path class="st0" d="M465.5,19c-0.5,2.6-1.4,5-2.3,6.5h-23.7l-2.7,12.7h19.4c0.1,1.6,0.1,3.2-0.4,5.9c-0.6,2.8-1.3,4.5-2.2,6.1
		h-19.3l-2.8,13.4h24.5c0.2,1.5,0.1,3.8-0.4,6.1c-0.6,2.4-1.3,4.5-2.3,6.2h-41.1l13.4-62.8h40.2C466,14.5,466,16.7,465.5,19z"/>
	<path class="st0" d="M462.8,42.9c4.5-21.2,16.6-31,34.9-31c11.2,0,16.1,3.8,16.1,3.8c-0.9,4.3-3.3,8.1-7.1,10.9
		c0,0-4.1-1.7-9.4-1.7c-8.6,0-14.2,4.5-17.5,19.8c-3.2,15.3,0.5,19.5,9.1,19.5c5.7,0,11-1.9,11-1.9c2.5,2.6,3.4,6.9,2.4,11.2
		c0,0-6.5,3.8-18.6,3.8C465.5,77.2,458.4,64.2,462.8,42.9z"/>
	<path class="st0" d="M565.3,20c-0.9,3.9-2.4,6.9-2.4,6.9H548l-10.2,48.3c0,0-3.6,0.8-8.5,0.8c-5.2,0-8.1-0.8-8.1-0.8l10.2-48.3
		h-15.2c0,0-0.3-2.7,0.5-6.7c0.9-4.2,2.4-7,2.4-7h46.7C565.8,13.2,566.1,16,565.3,20z"/>
	<path class="st0" d="M664.5,19c-0.5,2.6-1.4,5-2.3,6.5h-23.7l-2.7,12.7h19.4c0.1,1.6,0.1,3.2-0.4,5.9c-0.6,2.8-1.3,4.5-2.2,6.1
		h-19.3l-2.8,13.4h24.5c0.2,1.5,0.1,3.8-0.4,6.1c-0.6,2.4-1.3,4.5-2.3,6.2h-41.1l13.3-62.8h40.2C665,14.5,665,16.7,664.5,19z"/>
	<path class="st0" d="M683.7,73.5c0.9-4.2,3-8.6,6.5-11.5c2.6,0.9,8,2,12.7,2c8,0,11.8-2.1,12.8-6.9c1-4.8-1.6-6.9-9-6.9h-7.5
		c-0.5-2.8,0.9-9.5,2.5-12.1h7.6c6.7,0,9.2-2.3,10.1-6.5c1-4.6-1.7-6.7-7.6-6.7c-6.8,0-12.6,1.8-12.6,1.8c-2.8-2.3-3.5-6.9-2.5-11.1
		c0,0,8.6-3.7,20.2-3.7c15.9,0,21.9,6.8,19.5,18.2c-1.4,6.4-4.4,11.1-10.9,13.5l-0.1,0.3c5.9,2.6,8.3,7.9,6.7,15.3
		c-2.4,11.1-11.3,18-29.8,18C690.3,77.2,683.7,73.5,683.7,73.5z"/>
	<path class="st0" d="M790,75.2c-1.3,0.4-4.5,0.8-8.6,0.8c-3.8,0-6.5-0.4-7.6-0.8l-1-11.5h-20.2l-6,11.5c-1.4,0.4-4.8,0.8-8.5,0.8
		c-3.5,0-6.5-0.4-7.6-0.8l32-61.3c1.7-0.3,5.9-0.8,10.9-0.8c5.2,0,9.1,0.4,10.6,0.8L790,75.2z M758.5,52.3h13.3l-1.1-11.8
		c-0.4-5.8-0.2-11.3,0.2-13.8h-0.6c-0.4,2.9-2.8,8.6-5.6,13.9L758.5,52.3z"/>
	<path class="st0" d="M599.6,13.9c-1.5-0.3-5.3-0.8-10.6-0.8c-5.1,0-9.3,0.4-10.9,0.8l-32,61.3c1.1,0.4,4.1,0.8,7.6,0.8
		c3.7,0,7.1-0.4,8.5-0.8l6-11.5h0.1l11.9-23.1c2.8-5.3,5.1-11,5.6-13.9h0.6c-0.3,2.5-0.6,8-0.2,13.8l2.2,23.2h0l1,11.5
		c1,0.4,3.7,0.8,7.6,0.8c4.1,0,7.3-0.4,8.6-0.8L599.6,13.9z"/>
</g>
</svg>
